<?xml version="1.0" encoding="UTF-8" standalone="no"?>
<!-- Created with Inkscape (http://www.inkscape.org/) -->

<svg
   xmlns:dc="http://purl.org/dc/elements/1.1/"
   xmlns:cc="http://creativecommons.org/ns#"
   xmlns:rdf="http://www.w3.org/1999/02/22-rdf-syntax-ns#"
   xmlns:svg="http://www.w3.org/2000/svg"
   xmlns="http://www.w3.org/2000/svg"
   xmlns:sodipodi="http://sodipodi.sourceforge.net/DTD/sodipodi-0.dtd"
   xmlns:inkscape="http://www.inkscape.org/namespaces/inkscape"
   width="744.09448819"
   height="1052.3622047"
   id="svg3070"
   version="1.1"
   inkscape:version="0.48.5 r10040"
   sodipodi:docname="drawing.svg">
  <defs
     id="defs3072" />
  <sodipodi:namedview
     id="base"
     pagecolor="#ffffff"
     bordercolor="#666666"
     borderopacity="1.0"
     inkscape:pageopacity="0.0"
     inkscape:pageshadow="2"
     inkscape:zoom="1"
     inkscape:cx="340.87562"
     inkscape:cy="749.60098"
     inkscape:document-units="px"
     inkscape:current-layer="g3248"
     showgrid="false"
     inkscape:window-width="1079"
     inkscape:window-height="756"
     inkscape:window-x="245"
     inkscape:window-y="46"
     inkscape:window-maximized="0" />
  <metadata
     id="metadata3075">
    <rdf:RDF>
      <cc:Work
         rdf:about="">
        <dc:format>image/svg+xml</dc:format>
        <dc:type
           rdf:resource="http://purl.org/dc/dcmitype/StillImage" />
        <dc:title />
      </cc:Work>
    </rdf:RDF>
  </metadata>
  <g
     inkscape:label="Layer 1"
     inkscape:groupmode="layer"
     id="layer1">
    <g
       transform="matrix(1.25,0,0,-1.25,195.89094,353.11924)"
       inkscape:label="ink_ext_XXXXXX"
       id="g3246">
      <g
         transform="matrix(0.17132133,0,0,0.17132133,-89.701548,5.2402541)"
         id="g3248">
        <path
           id="path3250"
           style="fill:#ffffff;fill-opacity:1;fill-rule:nonzero;stroke:none"
           d="m -342.26428,-133.76778 833.82393,0 0,416.90216 -833.82393,0 0,-416.90216 z"
           inkscape:connector-curvature="0" />
        <path
           id="path3252"
           style="fill:#008940;fill-opacity:1;fill-rule:nonzero;stroke:none"
           d="M 362.98351,131.55068 C 320.8836,101.21038 274.87146,74.91632 225.29024,53.467625 200.79052,42.878098 174.39351,35.548773 146.56169,32.06959 126.80438,29.599844 106.66466,28.361295 86.224259,28.361295 l 0,-162.129075 405.335391,0 0,358.16802 -128.5647,-92.861 -0.0114,0.0114"
           inkscape:connector-curvature="0" />
        <path
           id="path3254"
           style="fill:#008940;fill-opacity:1;fill-rule:nonzero;stroke:none"
           d="m -213.69337,131.55068 c 42.10024,-30.3403 88.10585,-56.63436 137.693596,-78.083055 C -51.500054,42.878098 -25.098141,35.548773 2.7271486,32.06959 22.490997,29.599844 42.630709,28.361295 63.064574,28.361295 l 0,-162.129075 -405.328854,0 0,358.16802 128.56454,-92.861 0.006,0.0114"
           inkscape:connector-curvature="0" />
        <path
           id="path3256"
           style="fill:#133e79;fill-opacity:1;fill-rule:nonzero;stroke:none"
           d="m 86.224259,283.13453 0,-231.619758 c 19.450091,0 38.633801,1.20603 57.464531,3.536379 l 0,0 c 25.59789,3.198103 49.87536,9.932584 72.40916,19.687042 48.01729,20.759068 92.56031,46.216427 133.32018,75.594187 l 0,0 142.14152,102.65305 0,30.1491 -405.335391,0"
           inkscape:connector-curvature="0" />
        <path
           id="path3258"
           style="fill:#133e79;fill-opacity:1;fill-rule:nonzero;stroke:none"
           d="m 63.064574,283.13453 0,-231.619758 c -19.463159,0 -38.632163,1.20603 -57.4645264,3.536379 l 0,0 C -19.991309,58.249254 -44.273682,64.983735 -66.807476,74.738193 -114.82477,95.497261 -159.36942,120.95462 -200.12831,150.33238 l 0,0 -142.13597,102.65305 0,30.1491 405.328854,0"
           inkscape:connector-curvature="0" />
        <path
           id="path3260"
           style="fill:#133e79;fill-opacity:1;fill-rule:nonzero;stroke:none"
           d="m 576.76189,147.5757 0,88.203 32.442,0 0,-85.77 c 0,-22.3043 10.339,-32.6481 28.593,-32.6481 18.653,0 27.977,10.75 27.977,33.6641 l 0,84.754 32.648,0 0,-86.781 c 0,-39.1371 -23.312,-56.984697 -61.242,-56.984697 -36.289,0 -60.418,16.429597 -60.418,55.562697"
           inkscape:connector-curvature="0" />
        <path
           id="path3262"
           style="fill:#133e79;fill-opacity:1;fill-rule:nonzero;stroke:none"
           d="m 794.56289,94.044203 0,63.667497 c 0,15.211 -4.258,22.915 -16.824,22.915 -12.981,0 -20.274,-11.153 -20.274,-28.993 l 0,-57.589497 -31.836,0 0,83.542497 c 0,11.153 -0.402,19.063 -0.617,25.141 l 30.422,0 c 0.41,-3.851 1.414,-16.223 1.629,-22.305 5.469,17.235 19.055,24.336 34.668,24.336 27.375,0 35.078,-18.453 35.078,-38.73 l 0,-71.984497 -32.246,0"
           inkscape:connector-curvature="0" />
        <path
           id="path3264"
           style="fill:#133e79;fill-opacity:1;fill-rule:nonzero;stroke:none"
           d="m 854.01589,94.044203 0,108.683497 31.426,0 0,-108.683497 -31.426,0 z m 0,122.273497 0,29.602 31.426,0 0,-29.602 -31.426,0"
           inkscape:connector-curvature="0" />
        <path
           id="path3266"
           style="fill:#133e79;fill-opacity:1;fill-rule:nonzero;stroke:none"
           d="m 977.80289,94.044203 -37.107,0 -38.926,108.683497 31.836,0 18.652,-57.988 7.5,-26.1564 7.305,26.1564 17.23,57.988 31.23001,0 -37.72001,-108.683497"
           inkscape:connector-curvature="0" />
        <path
           id="path3268"
           style="fill:#133e79;fill-opacity:1;fill-rule:nonzero;stroke:none"
           d="m 1054.6229,160.7547 36.5,0 0,0.407 c 0,18.855 -6.89,24.535 -17.85,24.535 -10.33,0 -18.04,-5.68 -18.65,-24.942 z m -33.65,-11.757 c 0,42.379 23.92,55.761 52.91,55.761 37.52,0 49.88,-22.511 49.88,-52.718 0,-4.871 -0.4,-9.532 -0.4,-9.532 l -68.74,0 0,-2.843 c 0,-13.7856 4.86,-27.3715 20.08,-27.3715 9.93,0 15.2,4.4609 17.03,15.0039 l 30.01,-1.8281 c -4.05,-17.6367 -14.6,-33.456997 -48.06,-33.456997 -33.87,0 -52.71,18.660097 -52.71,56.984697"
           inkscape:connector-curvature="0" />
        <path
           id="path3270"
           style="fill:#133e79;fill-opacity:1;fill-rule:nonzero;stroke:none"
           d="m 1145.1329,94.044203 0,82.929497 c 0,6.895 -0.41,23.321 -0.82,25.754 l 30.42,0 c 0.2,-1.82 1.41,-13.785 1.82,-20.48 3.05,12.773 11.97,22.511 28.6,22.511 1.41,0 4.45,0 6.89,-0.406 l 0,-26.969 c -4.46,0.61 -7.3,0.61 -10.75,0.61 -16.63,0 -24.13,-11.356 -24.13,-27.582 l 0,-56.367497 -32.03,0"
           inkscape:connector-curvature="0" />
        <path
           id="path3272"
           style="fill:#133e79;fill-opacity:1;fill-rule:nonzero;stroke:none"
           d="m 1266.9229,92.013003 c -32.65,0 -44.81,15.210897 -47.24,31.835897 l 28.79,3.25 c 0.81,-7.3008 5.47,-14.8047 18.04,-14.8047 10.75,0 15.62,4.0547 15.62,10.7461 0,7.3008 -5.27,10.1406 -22.92,14.1953 -27.36,6.2811 -36.29,17.0311 -36.29,34.8791 0,19.461 15,32.644 43.4,32.644 25.95,0 42.37,-12.976 44.8,-30.621 l -29.39,-2.023 c -0.41,8.512 -7.31,12.976 -16.43,12.976 -9.73,0 -13.59,-4.058 -13.59,-8.925 0,-6.286 2.44,-9.731 23.73,-14.598 22.3,-5.07 38.53,-12.164 38.53,-34.0665 0,-22.3007 -15.83,-35.488197 -47.05,-35.488197"
           inkscape:connector-curvature="0" />
        <path
           id="path3274"
           style="fill:#133e79;fill-opacity:1;fill-rule:nonzero;stroke:none"
           d="m 1332.8829,94.044203 0,108.683497 31.43,0 0,-108.683497 -31.43,0 z m 0,122.273497 0,29.602 31.43,0 0,-29.602 -31.43,0"
           inkscape:connector-curvature="0" />
        <path
           id="path3276"
           style="fill:#133e79;fill-opacity:1;fill-rule:nonzero;stroke:none"
           d="m 1461.3029,149.6027 c 0,26.766 -11.35,33.457 -21.68,33.457 -13.4,0 -20.49,-10.137 -20.49,-33.863 0,-23.5197 6.49,-35.2814 20.27,-35.2814 10.36,0 21.9,7.5039 21.9,35.6874 z m 1.23,-55.558497 c -0.22,1.418 -1.23,13.992197 -1.23,18.046897 l -0.39,0 c -6.51,-13.992197 -18.26,-20.078097 -34.88,-20.078097 -29.2,0 -39.95,25.753897 -39.95,56.777697 0,34.269 13.58,55.968 41.76,55.968 15.22,0 27.58,-5.882 33.07,-18.855 l 0.19,0 c 0,2.836 -0.19,10.746 -0.19,18.246 l 0,48.867 31.62,0 0,-135.0467 c 0,-7.5 0.41,-20.683597 0.82,-23.925797 l -30.82,0"
           inkscape:connector-curvature="0" />
        <path
           id="path3278"
           style="fill:#133e79;fill-opacity:1;fill-rule:nonzero;stroke:none"
           d="m 1556.8929,112.2942 c 10.74,0 18.43,8.1094 18.43,22.9141 l 0,8.1094 -13.79,0 c -10.33,0 -19.86,-3.852 -19.86,-16.0196 0,-7.9062 4.86,-15.0039 15.22,-15.0039 z m 64.47,2.0273 0,-21.492097 c -6.9,-0.6094 -10.14,-0.8164 -17.03,-0.8164 -15.41,0 -26.16,6.8984 -26.37,20.078097 -5.06,-13.789097 -17.23,-20.078097 -32.03,-20.078097 -24.12,0 -35.08,16.023397 -35.08,32.449197 0,25.3435 18.05,35.0785 53.73,35.0785 l 10.74,0 0,9.125 c 0,12.367 -5.66,17.031 -15.41,17.031 -10.13,0 -15.6,-5.68 -15.6,-15.817 l -29.2,1.829 c 1.81,19.461 16.42,33.05 46.64,33.05 30.62,0 44.39,-13.789 44.39,-39.746 l 0,-42.7849 c 0,-5.0664 1.84,-7.9063 7.72,-7.9063 l 7.5,0"
           inkscape:connector-curvature="0" />
        <path
           id="path3280"
           style="fill:#133e79;fill-opacity:1;fill-rule:nonzero;stroke:none"
           d="m 1707.4729,149.6027 c 0,26.766 -11.35,33.457 -21.7,33.457 -13.38,0 -20.47,-10.137 -20.47,-33.863 0,-23.5197 6.49,-35.2814 20.28,-35.2814 10.33,0 21.89,7.5039 21.89,35.6874 z m 1.21,-55.558497 c -0.19,1.418 -1.21,13.992197 -1.21,18.046897 l -0.41,0 c -6.48,-13.992197 -18.24,-20.078097 -34.86,-20.078097 -29.2,0 -39.96,25.753897 -39.96,56.777697 0,34.269 13.59,55.968 41.77,55.968 15.22,0 27.58,-5.882 33.05,-18.855 l 0.22,0 c 0,2.836 -0.22,10.746 -0.22,18.246 l 0,48.867 31.64,0 0,-135.0467 c 0,-7.5 0.41,-20.683597 0.8,-23.925797 l -30.82,0"
           inkscape:connector-curvature="0" />
        <path
           id="path3282"
           style="fill:#133e79;fill-opacity:1;fill-rule:nonzero;stroke:none"
           d="m 1794.9329,160.7547 36.51,0 0,0.407 c 0,18.855 -6.9,24.535 -17.86,24.535 -10.33,0 -18.04,-5.68 -18.65,-24.942 z m -33.65,-11.757 c 0,42.379 23.93,55.761 52.91,55.761 37.52,0 49.88,-22.511 49.88,-52.718 0,-4.871 -0.41,-9.532 -0.41,-9.532 l -68.73,0 0,-2.843 c 0,-13.7856 4.87,-27.3715 20.08,-27.3715 9.92,0 15.2,4.4609 17.03,15.0039 l 30,-1.8281 c -4.04,-17.6367 -14.59,-33.456997 -48.05,-33.456997 -33.86,0 -52.71,18.660097 -52.71,56.984697"
           inkscape:connector-curvature="0" />
        <path
           id="path3284"
           style="fill:#133e79;fill-opacity:1;fill-rule:nonzero;stroke:none"
           d="m 2010.0329,149.6027 c 0,26.766 -11.35,33.457 -21.68,33.457 -13.4,0 -20.49,-10.137 -20.49,-33.863 0,-23.5197 6.49,-35.2814 20.28,-35.2814 10.35,0 21.89,7.5039 21.89,35.6874 z m 1.23,-55.558497 c -0.21,1.418 -1.23,13.992197 -1.23,18.046897 l -0.39,0 c -6.5,-13.992197 -18.26,-20.078097 -34.88,-20.078097 -29.2,0 -39.95,25.753897 -39.95,56.777697 0,34.269 13.58,55.968 41.76,55.968 15.22,0 27.58,-5.882 33.07,-18.855 l 0.19,0 c 0,2.836 -0.19,10.746 -0.19,18.246 l 0,48.867 31.62,0 0,-135.0467 c 0,-7.5 0.41,-20.683597 0.82,-23.925797 l -30.82,0"
           inkscape:connector-curvature="0" />
        <path
           id="path3286"
           style="fill:#133e79;fill-opacity:1;fill-rule:nonzero;stroke:none"
           d="m 2097.4929,160.7547 36.5,0 0,0.407 c 0,18.855 -6.89,24.535 -17.83,24.535 -10.35,0 -18.04,-5.68 -18.67,-24.942 z m -33.65,-11.757 c 0,42.379 23.92,55.761 52.93,55.761 37.5,0 49.88,-22.511 49.88,-52.718 0,-4.871 -0.41,-9.532 -0.41,-9.532 l -68.75,0 0,-2.843 c 0,-13.7856 4.88,-27.3715 20.08,-27.3715 9.94,0 15.21,4.4609 17.03,15.0039 l 30.02,-1.8281 c -4.06,-17.6367 -14.61,-33.456997 -48.07,-33.456997 -33.84,0 -52.71,18.660097 -52.71,56.984697"
           inkscape:connector-curvature="0" />
        <path
           id="path3288"
           style="fill:#133e79;fill-opacity:1;fill-rule:nonzero;stroke:none"
           d="m 2298.1429,155.4857 -18.05,0 0,-37.9181 19.06,0 c 15,0 25.14,4.8672 25.14,19.4688 0,14.3903 -11.76,18.4493 -26.15,18.4493 z m -3.85,57.18 -14.2,0 0,-33.051 14.39,0 c 15.41,0 22.11,5.066 22.11,16.629 0,11.961 -7.09,16.422 -22.3,16.422 z m 7.91,-118.621497 -53.95,0 0,141.734497 49.08,0 c 32.86,0 51.7,-11.961 51.7,-35.887 0,-16.023 -8.51,-26.562 -25.54,-30.621 21.7,-2.836 33.65,-15.816 33.65,-34.6718 0,-28.5899 -23.11,-40.554697 -54.94,-40.554697"
           inkscape:connector-curvature="0" />
        <path
           id="path3290"
           style="fill:#133e79;fill-opacity:1;fill-rule:nonzero;stroke:none"
           d="m 2378.9029,94.044203 0,82.929497 c 0,6.895 -0.41,23.321 -0.8,25.754 l 30.41,0 c 0.19,-1.82 1.42,-13.785 1.81,-20.48 3.05,12.773 11.98,22.511 28.6,22.511 1.42,0 4.47,0 6.89,-0.406 l 0,-26.969 c -4.45,0.61 -7.3,0.61 -10.74,0.61 -16.62,0 -24.12,-11.356 -24.12,-27.582 l 0,-56.367497 -32.05,0"
           inkscape:connector-curvature="0" />
        <path
           id="path3292"
           style="fill:#133e79;fill-opacity:1;fill-rule:nonzero;stroke:none"
           d="m 2498.4729,112.2942 c 10.74,0 18.45,8.1094 18.45,22.9141 l 0,8.1094 -13.78,0 c -10.36,0 -19.89,-3.852 -19.89,-16.0196 0,-7.9062 4.89,-15.0039 15.22,-15.0039 z m 64.47,2.0273 0,-21.492097 c -6.89,-0.6094 -10.14,-0.8164 -17.03,-0.8164 -15.41,0 -26.15,6.8984 -26.35,20.078097 -5.08,-13.789097 -17.25,-20.078097 -32.05,-20.078097 -24.12,0 -35.08,16.023397 -35.08,32.449197 0,25.3435 18.05,35.0785 53.75,35.0785 l 10.74,0 0,9.125 c 0,12.367 -5.68,17.031 -15.41,17.031 -10.13,0 -15.62,-5.68 -15.62,-15.817 l -29.2,1.829 c 1.84,19.461 16.43,33.05 46.64,33.05 30.63,0 44.41,-13.789 44.41,-39.746 l 0,-42.7849 c 0,-5.0664 1.82,-7.9063 7.7,-7.9063 l 7.5,0"
           inkscape:connector-curvature="0" />
        <path
           id="path3294"
           style="fill:#133e79;fill-opacity:1;fill-rule:nonzero;stroke:none"
           d="m 2617.8229,92.013003 c -32.63,0 -44.8,15.210897 -47.22,31.835897 l 28.79,3.25 c 0.8,-7.3008 5.46,-14.8047 18.04,-14.8047 10.74,0 15.61,4.0547 15.61,10.7461 0,7.3008 -5.28,10.1406 -22.91,14.1953 -27.39,6.2811 -36.29,17.0311 -36.29,34.8791 0,19.461 15,32.644 43.38,32.644 25.95,0 42.38,-12.976 44.82,-30.621 l -29.41,-2.023 c -0.39,8.512 -7.29,12.976 -16.43,12.976 -9.72,0 -13.57,-4.058 -13.57,-8.925 0,-6.286 2.42,-9.731 23.73,-14.598 22.3,-5.07 38.51,-12.164 38.51,-34.0665 0,-22.3007 -15.82,-35.488197 -47.05,-35.488197"
           inkscape:connector-curvature="0" />
        <path
           id="path3296"
           style="fill:#133e79;fill-opacity:1;fill-rule:nonzero;stroke:none"
           d="m 2685.6229,212.6657 0,3.246 20.68,28.793 28.59,0 0,-4.664 -29.59,-27.375 -19.68,0 z m -1.82,-118.621497 0,108.683497 31.64,0 0,-108.683497 -31.64,0"
           inkscape:connector-curvature="0" />
        <path
           id="path3298"
           style="fill:#133e79;fill-opacity:1;fill-rule:nonzero;stroke:none"
           d="m 2740.3429,94.044203 31.6172,0 0,158.972997 -31.6172,0 0,-158.972997 z"
           inkscape:connector-curvature="0" />
        <path
           id="path3300"
           style="fill:#133e79;fill-opacity:1;fill-rule:nonzero;stroke:none"
           d="m 2799.1729,94.044203 0,108.683497 31.45,0 0,-108.683497 -31.45,0 z m 0,122.273497 0,29.602 31.45,0 0,-29.602 -31.45,0"
           inkscape:connector-curvature="0" />
        <path
           id="path3302"
           style="fill:#133e79;fill-opacity:1;fill-rule:nonzero;stroke:none"
           d="m 2894.1329,112.2942 c 10.76,0 18.46,8.1094 18.46,22.9141 l 0,8.1094 -13.79,0 c -10.33,0 -19.86,-3.852 -19.86,-16.0196 0,-7.9062 4.86,-15.0039 15.19,-15.0039 z m 64.49,2.0273 0,-21.492097 c -6.89,-0.6094 -10.13,-0.8164 -17.03,-0.8164 -15.41,0 -26.15,6.8984 -26.36,20.078097 -5.06,-13.789097 -17.23,-20.078097 -32.04,-20.078097 -24.14,0 -35.07,16.023397 -35.07,32.449197 0,25.3435 18.04,35.0785 53.73,35.0785 l 10.74,0 0,9.125 c 0,12.367 -5.67,17.031 -15.41,17.031 -10.14,0 -15.61,-5.68 -15.61,-15.817 l -29.2,1.829 c 1.82,19.461 16.43,33.05 46.64,33.05 30.61,0 44.4,-13.789 44.4,-39.746 l 0,-42.7849 c 0,-5.0664 1.83,-7.9063 7.71,-7.9063 l 7.5,0"
           inkscape:connector-curvature="0" />
        <text
           xml:space="preserve"
           style="font-size:194.06033325px;font-style:normal;font-weight:normal;line-height:125%;letter-spacing:0px;word-spacing:0px;fill:#133e79;fill-opacity:1;stroke:none;font-family:Sans"
           x="565.52515"
           y="83.690468"
           id="text3347"
           sodipodi:linespacing="125%"
           transform="scale(1,-1)"><tspan
             sodipodi:role="line"
             id="tspan3349"
             x="565.52515"
             y="83.690468"
             style="font-style:normal;font-variant:normal;font-weight:normal;font-stretch:normal;fill:#133e79;fill-opacity:1;font-family:UnB Office;-inkscape-font-specification:UnB Office">Faculdade do Gama</tspan></text>
      </g>
    </g>
  </g>
</svg>
